<?xml version="1.0" encoding="utf-8"?>
<!-- Generator: Adobe Illustrator 23.0.5, SVG Export Plug-In . SVG Version: 6.00 Build 0)  -->
<svg version="1.1" id="Isolation_Mode" xmlns="http://www.w3.org/2000/svg" xmlns:xlink="http://www.w3.org/1999/xlink" x="0px"
	 y="0px" viewBox="0 0 146.7 146.7" style="enable-background:new 0 0 146.7 146.7;" xml:space="preserve">
<style type="text/css">
	.st0{fill:#EDCB3A;}
	.st1{fill:#AA7921;}
	.st2{fill:#DBA32C;}
	.st3{fill:#FFEEA4;}
	.st4{fill:#996B20;}
</style>
<g>
	<g>
		<circle class="st0" cx="73.4" cy="73.4" r="73.4"/>
	</g>
	<g>
		<circle class="st1" cx="73.4" cy="73.4" r="69.6"/>
	</g>
	<g>
		<circle class="st2" cx="73.4" cy="73.4" r="66.9"/>
	</g>
	<g>
		<path class="st0" d="M73.4,136.2c-34.6,0-62.8-28.2-62.8-62.8c0-34.6,28.2-62.8,62.8-62.8c34.6,0,62.8,28.2,62.8,62.8
			C136.2,108,108,136.2,73.4,136.2z M73.4,11.4c-34.2,0-62,27.8-62,62c0,34.2,27.8,62,62,62c34.2,0,62-27.8,62-62
			C135.3,39.2,107.5,11.4,73.4,11.4z"/>
	</g>
	<g>
		
			<ellipse transform="matrix(0.2419 -0.9703 0.9703 0.2419 -15.57 126.7964)" class="st0" cx="73.4" cy="73.4" rx="57.6" ry="57.6"/>
	</g>
	<g>
		<g>
			<path class="st3" d="M123.9,61.9c-1.2-5.5-3.3-10.6-6.2-15.3l-71.2,71.2c4.7,2.8,9.8,4.9,15.3,6.2L123.9,61.9z"/>
		</g>
		<g>
			<path class="st3" d="M82.3,22.3l-60,60c2.1,12.3,8.6,23.1,17.8,30.8l73-73C105.5,30.9,94.6,24.5,82.3,22.3z"/>
		</g>
	</g>
</g>
<g>
	<path class="st4" d="M99.6,54.5c-0.4-0.4-0.8-0.5-1.4-0.5H88.1c-0.7-3.3-1.9-6.1-3.8-8.6h13.8c0.6,0,1-0.2,1.4-0.5
		c0.4-0.4,0.5-0.8,0.5-1.4v-6.1c0-0.6-0.2-1-0.5-1.4c-0.4-0.4-0.8-0.5-1.4-0.5H48.7c-0.6,0-1,0.2-1.4,0.5c-0.4,0.4-0.5,0.8-0.5,1.4
		v7.9c0,0.5,0.2,1,0.6,1.3c0.4,0.4,0.8,0.6,1.3,0.6h8.6c8.4,0,13.7,2.2,15.9,6.7H48.7c-0.6,0-1,0.2-1.4,0.5
		c-0.4,0.4-0.5,0.8-0.5,1.4v6.1c0,0.6,0.2,1,0.5,1.4c0.4,0.4,0.8,0.5,1.4,0.5h25.4c-0.9,3.2-2.9,5.7-6.1,7.4
		c-3.2,1.7-7.4,2.6-12.6,2.6h-6.7c-0.5,0-1,0.2-1.3,0.6c-0.4,0.4-0.6,0.8-0.6,1.3v7.5c0,0.5,0.2,1,0.5,1.3
		c7.6,8.1,17.5,19.4,29.6,33.9c0.4,0.5,0.9,0.7,1.5,0.7H90c0.8,0,1.4-0.4,1.7-1.1c0.4-0.7,0.3-1.4-0.2-2
		c-11.6-14.2-20.7-24.8-27.3-31.9c6.7-0.8,12.2-3,16.4-6.5c4.2-3.6,6.8-8.2,7.7-13.9h10c0.6,0,1-0.2,1.4-0.5
		c0.4-0.4,0.5-0.8,0.5-1.4v-6.1C100.2,55.3,100,54.8,99.6,54.5z"/>
</g>
</svg>
